자연언어처리 15주차 특강_lmer 및 afex를 사용한 선형혼합효과모형
…
# augment 함수를 통해 관찰값마다 Cook의 거리와 표준화된 잔차를 구함.
library(broom)
full_rsd <- full_lm %>% 
  augment(., data = fhch2010) %>% 
  tibble::rowid_to_column(var = "case_no") # case_no라는 칼럼을 만들어 행 번호 값을 거기에 넣겠다는 뜻. 

# 표준화된 잔차를 바탕으로 극단값 파악하기.
full_rsd %>% 
  filter(abs(.std.resid) >= 1.96) %>%
  dplyr::select(case_no, .std.resid, .resid) %>% 
  arrange(.std.resid)

## # A tibble: 627 × 3
##    case_no .std.resid .resid
##      <int>      <dbl>  <dbl>
##  1    9855      -4.17  -1.63
##  2   12014      -4.15  -1.62
##  3    7747      -4.11  -1.61
##  4    8283      -4.11  -1.61
##  5   11924      -4.10  -1.60
##  6    6665      -4.05  -1.58
##  7   11272      -3.86  -1.51
##  8   13112      -3.86  -1.51
##  9    6602      -3.79  -1.48
## 10    6695      -3.79  -1.48
## # … with 617 more rows

# Cook의 거리를 바탕으로 극단값 파악하기(1 이상인 값 찾기).
full_rsd %>% 
  arrange(desc(.cooksd)) %>%
  dplyr::select(case_no, .cooksd)

## # A tibble: 13,222 × 2
##    case_no .cooksd
##      <int>   <dbl>
##  1    9855 0.00128
##  2   12014 0.00125
##  3    7747 0.00123
##  4    8283 0.00123
##  5   11924 0.00122
##  6   11005 0.00121
##  7    6665 0.00120
##  8    8636 0.00120
##  9    9484 0.00117
## 10    9196 0.00117
## # … with 13,212 more rows
…
