자연언어처리 5주차_텍스트 마이닝을 사용한 자연언어처리 #3: 토픽 모델링
…
# 단일 json 파일 데이터 프레임으로 불러들이기. 
article.json <- fromJSON("texts/topicmodels/논문요약_0206_0.json", simplifyDataFrame =T)  

# 데이터의 구조 살펴보기.
attributes(article.json)

## $names
## [1] "totalcount" "data"

# data 섹션만 추출하여 티블 형식으로 변환하기.
article.2 <- article.json$data %>%
  as_tibble()
article.2 

## # A tibble: 32,000 x 10
##    doc_type doc_id      title date  reg_no ipc   issued_by author summary_entire
##    <chr>    <chr>       <chr> <chr> <chr>  <chr> <chr>     <chr>  <list>        
##  1 논문     A201008176~ 교직~ 2018  ART00~ 사회~ 사범대학~ 조석~  <df [1 x 2]>  
##  2 논문     A201008176~ 평면~ 2018  ART00~ 사회~ 사범대학~ 정영~  <df [1 x 2]>  
##  3 논문     A201008176~ 한국~ 2018  ART00~ 사회~ 사범대학~ 양림 ~ <df [1 x 2]>  
##  4 논문     A201008176~ 로봇~ 2018  ART00~ 사회~ 한국교육~ 노지~  <df [1 x 2]>  
##  5 논문     A201008176~ 고등~ 2018  ART00~ 사회~ 사범대학~ 김창~  <df [1 x 2]>  
##  6 논문     A201008176~ 창의~ 2018  ART00~ 사회~ 한국교육~ 박태~  <df [1 x 2]>  
##  7 논문     A201008176~ 자아~ 2018  ART00~ 사회~ 한국건강~ 김시~  <df [1 x 2]>  
##  8 논문     A201008176~ 침습~ 2018  ART00~ 사회~ 한국건강~ 고은~  <df [1 x 2]>  
##  9 논문     A201008176~ 한국~ 2018  ART00~ 사회~ 사범대학~ 김원~  <df [1 x 2]>  
## 10 논문     A201008176~ 컴퓨~ 2018  ART00~ 사회~ 한국교육~ 나청~  <df [1 x 2]>  
## # ... with 31,990 more rows, and 1 more variable: summary_section <list>

# for문을 사용하여 summary_entire의 original_text 섹션만 추출하기.
article.3 <- list()
for(i in 1:nrow(article.2)){
  article.3[[i]] <- map_dfr(article.2$summary_entire[[i]][1], function(x) as_tibble(x))
}

# 리스트 형식으로 추출된 결과물을 티블 형식으로 변환하기.
article.3.1 <- map_dfr(article.3, function(x) as_tibble(x)) %>%
  rename(summary = value) # 열 이름 summary로 바꾸기.
article.3.1

## # A tibble: 32,000 x 1
##    summary                                                                      
##    <chr>                                                                        
##  1 본 연구는 경제협력개발기구(Organization for Economic Cooperation and Develop~
##  2 학교수학에서 다루어지는 테셀레이션에 관한 내용은 주로 기하학적 관점의 결과론~
##  3 본 연구는 박근혜 정부에서 추진되었던 한국사교과서 국정화에 대한 정책변동에 ~ 
##  4 컴퓨팅사고력은 컴퓨팅의 기본적인 개념과 원리를 기반으로 문제를 효율적으로 해~
##  5 본 연구는 고등학생들의 바른 인성함양을 위한 긍정적 태도 형성 프로그램의 효과~
##  6 새로 도입된 피지컬컴퓨팅 교육을 통해 학생들이 창의적으로 문제를 해결하거나 ~ 
##  7 본 연구에서는 자아고갈 상태에서 냉압과제 수행동기가 통증반응(인내, 강도, 불~ 
##  8 본 연구는 외상 후 성장 이론을 바탕으로 침습적 반추, 정서조절방략 그리고 의도~
##  9 본 연구는 학교폭력 가해행동 관련변인을 메타분석을 이용해 체계적으로종합하고 ~
## 10 본 연구의 목적은 컴퓨팅 사고력 향상을 위한 SW 교육의 효과성을 메타분석을 통~ 
## # ... with 31,990 more rows

# doc_type:author 열(총 8개 열) 옆에 summary 열 부착한 뒤, 분석에 불필요한 summary_entire와 summary_section 열 제거하기.
article.4 <- bind_cols(article.2, article.3.1) %>%
  select(-summary_entire, -summary_section)
article.4

## # A tibble: 32,000 x 9
##    doc_type doc_id        title      date  reg_no ipc   issued_by author summary
##    <chr>    <chr>         <chr>      <chr> <chr>  <chr> <chr>     <chr>  <chr>  
##  1 논문     A201008176694 교직 선택~ 2018  ART00~ 사회~ 사범대학~ 조석~  본 연~ 
##  2 논문     A201008176695 평면 테셀~ 2018  ART00~ 사회~ 사범대학~ 정영~  학교수~
##  3 논문     A201008176696 한국사교~  2018  ART00~ 사회~ 사범대학~ 양림 ~ 본 연~ 
##  4 논문     A201008176697 로봇 활용~ 2018  ART00~ 사회~ 한국교육~ 노지~  컴퓨팅~
##  5 논문     A201008176698 고등학생~  2018  ART00~ 사회~ 사범대학~ 김창~  본 연~ 
##  6 논문     A201008176699 창의적 문~ 2018  ART00~ 사회~ 한국교육~ 박태~  새로 ~ 
##  7 논문     A201008176700 자아고갈 ~ 2018  ART00~ 사회~ 한국건강~ 김시~  본 연~ 
##  8 논문     A201008176701 침습적 반~ 2018  ART00~ 사회~ 한국건강~ 고은~  본 연~ 
##  9 논문     A201008176702 한국 청소~ 2018  ART00~ 사회~ 사범대학~ 김원~  본 연~ 
## 10 논문     A201008176703 컴퓨팅 사~ 2018  ART00~ 사회~ 한국교육~ 나청~  본 연~ 
## # ... with 31,990 more rows

# 사회과학-경제 관련 학회 출판 논문 초록 추출하기.
article.biz <- article.4 %>%
  filter(ipc == "사회과학" & str_detect(issued_by, "경영|경제|무역|마케팅|회계|기업|금융|생산|산업")) %>%
  mutate(field = "경제") %>%
  select(2, 9) %>% # doc_id와 summary 열 추출하기.
  rename(text = summary) # tm의 DataframeSource는 열 이름이 doc_id와 text여야 하므로 열 이름 바꿔주기.
article.biz

## # A tibble: 2,226 x 2
##    doc_id        text                                                           
##    <chr>         <chr>                                                          
##  1 A201008176863 본 연구는 정부의 신협 관련 정책을 검토하고 그 성과를 분석한다.~
##  2 A201008176891 이 연구에서는 상황적 접근(Contingency approach)를 통해, 제휴 ~ 
##  3 A201008176910 항공기제조분야에서 후발국가인 한국은 2003년 초음속 군사용 항공~
##  4 A201008176974 특허 심사 청구 제도의 취지와 달리 기업들이 낮은 가치를 지닌 출~
##  5 A201008176986 본 연구의 목적은 다변화하는 사회적기업의 환경 속에서 그동안 한~
##  6 A201008177010 본 연구는 금융위기 이후 파생상품 시장의 과도한 레버리지로 인한~
##  7 A201008177018 본 연구에서는 우리나라 의료기기 제조기업 중 실제 연구개발을 통~
##  8 A201008177027 본 연구는 비영리조직인 병원의 고객지향성과 사회적 책임 활동이 ~
##  9 A201008177043 이 연구는 결혼이주여성 배우자의 문화적응스트레스와 가족건강성~ 
## 10 A201008177058 본 논문에서는 증권사 구분에 따라 증권분석가의 투자의견 중 투자~
## # ... with 2,216 more rows
…
# 형태소 분석 패키지 RcppMeCab 불러오기.
library(RcppMeCab)

# pos 함수로 논문초록 텍스트 토큰화하기.
article.biz.mecab <- article.biz %>% 
  unnest_tokens(word, text, token = pos, drop = F) %>%
  filter(str_detect(word, "/nng|/nnp"), 
         str_length(word) > 1) %>%
  separate(word, into = c("word", "pos"), sep = "/") %>%
  group_by(doc_id) %>%
  summarise(text = str_flatten(word, " ")) %>%
  ungroup() 
article.biz.mecab

## # A tibble: 2,226 x 2
##    doc_id        text                                                           
##    <chr>         <chr>                                                          
##  1 A201008176863 연구 정부 신협 관련 정책 검토 성과 분석 정부 신협 신협 법 제정~
##  2 A201008176891 연구 상황 접근 제휴 포트폴리오 다양 조직 탐색 행동 양손잡이 전~
##  3 A201008176910 항공기 제조 분야 후발 국가 한국 초음속 군사 항공기 고등 훈련기~
##  4 A201008176974 특허 심사 청구 제도 취지 기업 가치 출원 특허 심사 의도 연기 가~
##  5 A201008176986 연구 목적 다변 사회 기업 환경 속 그동안 한국 사회 기업 연구 경~
##  6 A201008177010 연구 금융 위기 이후 파생 상품 시장 과도 레버리지 투기 폐해 정~ 
##  7 A201008177018 연구 나라 의료 기기 제조 기업 실제 연구 개발 특허 출원 등록 기~
##  8 A201008177027 연구 영리 조직 병원 고객 지향 사회 책임 활동 조직 평판 영향 실~
##  9 A201008177043 연구 결혼 주 여성 배우자 문화 스트레스 가족 건강 관계 사회 지~ 
## 10 A201008177058 논문 증권사 구분 증권 분석가 투자 의견 투자 등급 변경 상향 하~ 
## # ... with 2,216 more rows
…
tidy 함수: 통계모형 객체(여기서는 LDA 객체)를 tidy
형식으로 바꿔주는 broom 패키지 유래 함수.

β

특정 단어가 특정 주제에 할당될 확률: “모든 주제는 단어들이 무작위로
섞인 임의의 혼합물이다.”

matrix = “beta”를 지정해주면 주제, 단어, β 값이
제시됨.

abstract_topics <- tidy(abstract_lda, matrix = "beta")
abstract_topics

## # A tibble: 6,268 x 3
##    topic term         beta
##    <int> <chr>       <dbl>
##  1     1 가격대   6.14e- 5
##  2     2 가격대   1.32e- 4
##  3     1 가격정책 6.14e- 5
##  4     2 가격정책 9.07e-12
##  5     1 가격제   2.62e-58
##  6     2 가격제   1.19e- 3
##  7     1 가계부   4.91e- 4
##  8     2 가계부   8.09e-63
##  9     1 가계조사 1.32e- 6
## 10     2 가계조사 1.97e- 4
## # ... with 6,258 more rows
…
상대적으로 빈도가 지나치게 낮은 단어들은 제외: 적어도 한 주제에서
\(β>\frac{1}{1000}\)인 단어만
추출하기.

# 로그비 계산하기.
abstract_beta <- abstract_topics %>%
  mutate(topic = str_c("topic", topic)) %>% # topic의 값을 topic1, topic2와 같이 수정함.
  pivot_wider(names_from = topic, values_from = beta) %>% # topic1, topic2가 별도의 열이 티블의 구조를 변경함.
  filter(topic1 > .001 | topic2 > .001) %>% # 각 topic의 β 값이 0.001 이상인 행만 추출하기.
  mutate(log_ratio = log2(topic2 / topic1)) # 로그비 계산하기.
abstract_beta

## # A tibble: 296 x 4
##    term       topic1   topic2 log_ratio
##    <chr>       <dbl>    <dbl>     <dbl>
##  1 가격제   2.62e-58 1.19e- 3   182.   
##  2 가맹점   3.80e- 3 1.41e-10   -24.7  
##  3 가운데   2.84e- 3 2.09e- 3    -0.445
##  4 가입자   1.14e- 3 2.31e- 5    -5.63 
##  5 가중치   1.65e- 3 6.64e- 4    -1.32 
##  6 개발비   2.13e-11 3.10e- 3    27.1  
##  7 개인주의 1.38e- 3 1.04e- 4    -3.72 
##  8 거래량   6.17e- 5 2.97e- 3     5.59 
##  9 거래소   3.02e-10 3.77e- 3    23.6  
## 10 거시경제 2.06e- 4 2.02e- 3     3.29 
## # ... with 286 more rows
…
tidy 함수: LDA 객체를 tidy 형식으로 바꿔줌.

γ(gamma)

특정 문서가 특정 주제에 할당될 확률: “모든 문서는 주제들이 무작위로
섞인 임의의 혼합물이다.”

matrix = “gamma”를 지정해주면 주제, 단어, γ 값이
제시됨.

abstract_documents <- tidy(abstract_lda, matrix = "gamma")
abstract_documents

## # A tibble: 4,432 x 3
##    document      topic   gamma
##    <chr>         <int>   <dbl>
##  1 A201008176863     1 0.347  
##  2 A201008176891     1 0.0133 
##  3 A201008176910     1 0.995  
##  4 A201008176974     1 0.496  
##  5 A201008176986     1 0.0643 
##  6 A201008177010     1 0.0188 
##  7 A201008177018     1 0.978  
##  8 A201008177027     1 0.892  
##  9 A201008177043     1 0.995  
## 10 A201008177058     1 0.00588
## # ... with 4,422 more rows
…
sjnovel.list.1 <- str_c("texts/sejong/", sjnovel.list)
sjnovel.list.1

## [1] "texts/sejong/BSEO0288.txt" "texts/sejong/BSEO0316.txt"
## [3] "texts/sejong/BSEO0323.txt" "texts/sejong/BSEO0326.txt"

sjnovel.list.2 <- map(sjnovel.list.1, function(x) read_lines(x, skip = 74, locale = locale(encoding = "CP949"))) %>% # 텍스트 인코딩 "CP949"로 해주기.
  map(function(x) str_extract(x, "^9B.*")) %>% # 행 번호가 "9B"로 시작하는 행만 추출하기.
  unlist() %>% # 리스트를 벡터로 바꾸기.
  as_tibble() %>% # 벡터를 티블로 바꾸기.
  drop_na() # NA 행 제거하기.
sjnovel.list.2

## # A tibble: 93,438 x 1
##    value                                                                    
##    <chr>                                                                    
##  1 "9BSEO0288-0000010\t1.\t1/SN + ./SF"                                     
##  2 "9BSEO0288-0000020\t큰줄흰나비\t크/VA + ㄴ/ETM + 줄__01/NNG + 흰나비/NNG"
##  3 "9BSEO0288-0000030\t아랑은\t아랑/NNP + 은/JX"                            
##  4 "9BSEO0288-0000040\t나비가\t나비__03/NNG + 가/JKC"                       
##  5 "9BSEO0288-0000050\t되었다고\t되__01/VV + 었/EP + 다고/EC"               
##  6 "9BSEO0288-0000060\t한다.\t하/VV + ㄴ다/EF + ./SF"                       
##  7 "9BSEO0288-0000070\t나비.\t나비__03/NNG + ./SF"                          
##  8 "9BSEO0288-0000080\t어떤\t어떤/MM"                                       
##  9 "9BSEO0288-0000090\t나비들은\t나비__03/NNG + 들/XSN + 은/JX"             
## 10 "9BSEO0288-0000100\t아주\t아주/MAG"                                      
## # ... with 93,428 more rows
…
  mutate(text_tagged = str_c(morph, "/", tag)) %>% # 태그 부착된 형태소 열 생성하기. 
  filter(str_detect(tag, "NNP|NNG")) %>% # 일반 및 고유 명사만 추출하기.
  # 말뭉치 고유 ID로 제목과 작가 분류하기.
  mutate(title = case_when(str_detect(row_id, "9BSEO0288") ~ "아랑은 왜", 
                           str_detect(row_id, "9BSEO0326") ~ "난장이가 쏘아올린 작은 공",
                           str_detect(row_id, "9BSEO0316") ~ "사람의 아들",
                           str_detect(row_id, "9BSEO0323") ~ "광장"),
         author = case_when(str_detect(row_id, "9BSEO0288") ~ "김영하",
                            str_detect(row_id, "9BSEO0326") ~ "조세희",
                            str_detect(row_id, "9BSEO0316") ~ "이문열",
                            str_detect(row_id, "9BSEO0323") ~ "최인훈")
         )
sjnovel.list.3

## # A tibble: 41,227 x 7
##    row_id            text_untagged    morph    tag   text_tagged  title   author
##    <chr>             <chr>            <chr>    <chr> <chr>        <chr>   <chr> 
##  1 9BSEO0288-0000020 큰줄흰나비       줄__01   NNG   줄__01/NNG   아랑은~ 김영하
##  2 9BSEO0288-0000020 큰줄흰나비       흰나비   NNG   흰나비/NNG   아랑은~ 김영하
##  3 9BSEO0288-0000030 아랑은           아랑     NNP   아랑/NNP     아랑은~ 김영하
##  4 9BSEO0288-0000040 나비가           나비__03 NNG   나비__03/NNG 아랑은~ 김영하
##  5 9BSEO0288-0000070 나비.            나비__03 NNG   나비__03/NNG 아랑은~ 김영하
##  6 9BSEO0288-0000090 나비들은         나비__03 NNG   나비__03/NNG 아랑은~ 김영하
##  7 9BSEO0288-0000130 우리나라에도     우리나라 NNG   우리나라/NNG 아랑은~ 김영하
##  8 9BSEO0288-0000140 서식하는         서식__02 NNG   서식__02/NNG 아랑은~ 김영하
##  9 9BSEO0288-0000150 작은멋쟁이나비의 멋       NNG   멋/NNG       아랑은~ 김영하
## 10 9BSEO0288-0000150 작은멋쟁이나비의 나비__03 NNG   나비__03/NNG 아랑은~ 김영하
## # ... with 41,217 more rows

# 네 작품의 행 수 파악한 뒤 20-21개 장(문서)으로 나누기. 

kim <- sjnovel.list.3 %>%
  filter(author == "김영하") %>% # 16,924행 => 16924 %/% 20 => 846 + 4
  mutate(chapter = c(rep(1:20, each = 846), rep(21, 4)))
kim 

## # A tibble: 16,924 x 8
##    row_id            text_untagged morph  tag   text_tagged title author chapter
##    <chr>             <chr>         <chr>  <chr> <chr>       <chr> <chr>    <dbl>
##  1 9BSEO0288-0000020 큰줄흰나비    줄__01 NNG   줄__01/NNG  아랑~ 김영하       1
##  2 9BSEO0288-0000020 큰줄흰나비    흰나비 NNG   흰나비/NNG  아랑~ 김영하       1
##  3 9BSEO0288-0000030 아랑은        아랑   NNP   아랑/NNP    아랑~ 김영하       1
##  4 9BSEO0288-0000040 나비가        나비_~ NNG   나비__03/N~ 아랑~ 김영하       1
##  5 9BSEO0288-0000070 나비.         나비_~ NNG   나비__03/N~ 아랑~ 김영하       1
##  6 9BSEO0288-0000090 나비들은      나비_~ NNG   나비__03/N~ 아랑~ 김영하       1
##  7 9BSEO0288-0000130 우리나라에도  우리~  NNG   우리나라/N~ 아랑~ 김영하       1
##  8 9BSEO0288-0000140 서식하는      서식_~ NNG   서식__02/N~ 아랑~ 김영하       1
##  9 9BSEO0288-0000150 작은멋쟁이나~ 멋     NNG   멋/NNG      아랑~ 김영하       1
## 10 9BSEO0288-0000150 작은멋쟁이나~ 나비_~ NNG   나비__03/N~ 아랑~ 김영하       1
## # ... with 16,914 more rows

cho <- sjnovel.list.3 %>%
  filter(author == "조세희") %>% # 4,379행 => 4379 %/% 20 => 218 + 19
  mutate(chapter = c(rep(1:20, each = 218), rep(21, 19)))
cho

## # A tibble: 4,379 x 8
##    row_id            text_untagged morph  tag   text_tagged title author chapter
##    <chr>             <chr>         <chr>  <chr> <chr>       <chr> <chr>    <dbl>
##  1 9BSEO0326-0000010 난장이가      난장이 NNG   난장이/NNG  난장~ 조세희       1
##  2 9BSEO0326-0000040 공            공__01 NNG   공__01/NNG  난장~ 조세희       1
##  3 9BSEO0326-0000060 사람들은      사람   NNG   사람/NNG    난장~ 조세희       1
##  4 9BSEO0326-0000070 아버지를      아버지 NNG   아버지/NNG  난장~ 조세희       1
##  5 9BSEO0326-0000080 난장이라고    난장이 NNG   난장이/NNG  난장~ 조세희       1
##  6 9BSEO0326-0000100 사람들은      사람   NNG   사람/NNG    난장~ 조세희       1
##  7 9BSEO0326-0000130 아버지는      아버지 NNG   아버지/NNG  난장~ 조세희       1
##  8 9BSEO0326-0000140 난장이였다.   난장이 NNG   난장이/NNG  난장~ 조세희       1
##  9 9BSEO0326-0000150 불행하게도    불행   NNG   불행/NNG    난장~ 조세희       1
## 10 9BSEO0326-0000160 사람들은      사람   NNG   사람/NNG    난장~ 조세희       1
## # ... with 4,369 more rows

lee <- sjnovel.list.3 %>%
  filter(author == "이문열") %>% # 10,095행 => 10095 %/% 20 => 504 + 15
  mutate(chapter = c(rep(1:20, each = 504), rep(21, 15)))
lee

## # A tibble: 10,095 x 8
##    row_id            text_untagged  morph tag   text_tagged title author chapter
##    <chr>             <chr>          <chr> <chr> <chr>       <chr> <chr>    <dbl>
##  1 9BSEO0316-0000010 빗방울이       빗방~ NNG   빗방울/NNG  사람~ 이문열       1
##  2 9BSEO0316-0000040 먼지           먼지~ NNG   먼지__01/N~ 사람~ 이문열       1
##  3 9BSEO0316-0000050 위에           위__~ NNG   위__01/NNG  사람~ 이문열       1
##  4 9BSEO0316-0000080 얼룩들로       얼룩  NNG   얼룩/NNG    사람~ 이문열       1
##  5 9BSEO0316-0000100 형사계(刑事係) 형사~ NNG   형사__02/N~ 사람~ 이문열       1
##  6 9BSEO0316-0000110 유리창         유리~ NNG   유리창/NNG  사람~ 이문열       1
##  7 9BSEO0316-0000140 도회의         도회~ NNG   도회__01/N~ 사람~ 이문열       1
##  8 9BSEO0316-0000150 하늘과         하늘  NNG   하늘/NNG    사람~ 이문열       1
##  9 9BSEO0316-0000170 아래           아래~ NNG   아래__01/N~ 사람~ 이문열       1
## 10 9BSEO0316-0000210 지붕들이       지붕  NNG   지붕/NNG    사람~ 이문열       1
## # ... with 10,085 more rows

choi <- sjnovel.list.3 %>%
  filter(author == "최인훈") %>% # 9,829행 => 9829 %/% 20 => 491 + 9
  mutate(chapter = c(rep(1:20, each = 491), rep(21, 9)))
choi

## # A tibble: 9,829 x 8
##    row_id            text_untagged morph  tag   text_tagged title author chapter
##    <chr>             <chr>         <chr>  <chr> <chr>       <chr> <chr>    <dbl>
##  1 9BSEO0323-0000010 바다는,       바다   NNG   바다/NNG    광장  최인훈       1
##  2 9BSEO0323-0000020 크레파스보다  크레~  NNG   크레파스/N~ 광장  최인훈       1
##  3 9BSEO0323-0000060 비늘을        비늘_~ NNG   비늘__01/N~ 광장  최인훈       1
##  4 9BSEO0323-0000090 숨을          숨__01 NNG   숨__01/NNG  광장  최인훈       1
##  5 9BSEO0323-0000110 중립국으로    중립국 NNG   중립국/NNG  광장  최인훈       1
##  6 9BSEO0323-0000130 석방          석방   NNG   석방/NNG    광장  최인훈       1
##  7 9BSEO0323-0000140 포로를        포로_~ NNG   포로__01/N~ 광장  최인훈       1
##  8 9BSEO0323-0000160 인도          인도   NNP   인도/NNP    광장  최인훈       1
##  9 9BSEO0323-0000170 배            배     NNP   배/NNP      광장  최인훈       1
## 10 9BSEO0323-0000180 타고르호는,   타고~  NNP   타고르호/N~ 광장  최인훈       1
## # ... with 9,819 more rows

네 작품 말뭉치 tidy 텍스트 형식으로 만들기

형태소 단위로 토큰화하기.

문서별 단어 빈도 구하기.

# 형태소 단위로 토큰화하기.
sjnovel.tokenized <- bind_rows(kim, cho, lee, choi) %>%
  mutate(document = str_c(title, "_", chapter)) %>% # 개별 문서 = 작품명_장 번호.
  unnest_tokens(word, morph, token = "sentences") # 형태의미분석 태그 유지하기 위해 토큰화 방법을 "문장"으로 지정.
sjnovel.tokenized

## # A tibble: 41,227 x 9
##    row_id    text_untagged tag   text_tagged title author chapter document word 
##    <chr>     <chr>         <chr> <chr>       <chr> <chr>    <dbl> <chr>    <chr>
##  1 9BSEO028~ 큰줄흰나비    NNG   줄__01/NNG  아랑~ 김영하       1 아랑은 ~ 줄__~
##  2 9BSEO028~ 큰줄흰나비    NNG   흰나비/NNG  아랑~ 김영하       1 아랑은 ~ 흰나~
##  3 9BSEO028~ 아랑은        NNP   아랑/NNP    아랑~ 김영하       1 아랑은 ~ 아랑 
##  4 9BSEO028~ 나비가        NNG   나비__03/N~ 아랑~ 김영하       1 아랑은 ~ 나비~
##  5 9BSEO028~ 나비.         NNG   나비__03/N~ 아랑~ 김영하       1 아랑은 ~ 나비~
##  6 9BSEO028~ 나비들은      NNG   나비__03/N~ 아랑~ 김영하       1 아랑은 ~ 나비~
##  7 9BSEO028~ 우리나라에도  NNG   우리나라/N~ 아랑~ 김영하       1 아랑은 ~ 우리~
##  8 9BSEO028~ 서식하는      NNG   서식__02/N~ 아랑~ 김영하       1 아랑은 ~ 서식~
##  9 9BSEO028~ 작은멋쟁이나~ NNG   멋/NNG      아랑~ 김영하       1 아랑은 ~ 멋   
## 10 9BSEO028~ 작은멋쟁이나~ NNG   나비__03/N~ 아랑~ 김영하       1 아랑은 ~ 나비~
## # ... with 41,217 more rows

# 문서(작품의 장)별 단어 빈도 구하기.
sjnovel.word_counts <- sjnovel.tokenized %>%
  count(document, word, sort = T)
sjnovel.word_counts 

## # A tibble: 23,093 x 3
##    document       word         n
##    <chr>          <chr>    <int>
##  1 아랑은 왜_1    아랑        45
##  2 아랑은 왜_2    아랑        44
##  3 사람의 아들_15 아들        41
##  4 아랑은 왜_17   호장__02    38
##  5 아랑은 왜_16   호장__02    37
##  6 아랑은 왜_17   어사__01    37
##  7 아랑은 왜_9    영주        37
##  8 아랑은 왜_14   영주        36
##  9 사람의 아들_15 영감__01    33
## 10 사람의 아들_15 조          33
## # ... with 23,083 more rows
…
# 4-주제 LDA 모형 생성하기.
sjnovel.chapters_lda <- LDA(sjnovel.chapters_dtm, k = 4, control = list(seed = 1234)) # seed를 고정하면 다음에도 똑같은 결과를 재현할 수 있음.
sjnovel.chapters_lda

## A LDA_VEM topic model with 4 topics.

B. 단어-주제 확률

tidy 함수를 사용하여 특정 단어가 특정 주제에 할당될
확률인 β 구하기.

sjnovel.chapter_topics <- tidy(sjnovel.chapters_lda, matrix = "beta")
sjnovel.chapter_topics

## # A tibble: 31,476 x 3
##    topic term         beta
##    <int> <chr>       <dbl>
##  1     1 아랑     1.40e- 2
##  2     2 아랑     1.32e-24
##  3     3 아랑     8.54e- 3
##  4     4 아랑     9.21e-14
##  5     1 아들     7.29e- 4
##  6     2 아들     1.27e- 2
##  7     3 아들     0       
##  8     4 아들     1.00e- 3
##  9     1 호장__02 3.72e-44
## 10     2 호장__02 7.02e-17
## # ... with 31,466 more rows
…
공통 단어: “말”, “사람”, “때” 같은 단어는 모든 주제에 걸쳐 상위권에
나타남.

C. 문서-주제 확률

γ: 본 분석에서는 하나의 장이 개별 문서에 해당. 어떤 주제가 각 장과
연관이 있는지 γ(특정 문서가 특정 주제에 할당될 확률)를 통해 확인할 수
있음.

sjnovel.gamma <- tidy(sjnovel.chapters_lda, matrix = "gamma")
sjnovel.gamma

## # A tibble: 336 x 3
##    document       topic     gamma
##    <chr>          <int>     <dbl>
##  1 아랑은 왜_1        1 1.00     
##  2 아랑은 왜_2        1 1.00     
##  3 사람의 아들_15     1 0.0158   
##  4 아랑은 왜_17       1 0.0000172
##  5 아랑은 왜_16       1 0.0000172
##  6 아랑은 왜_9        1 0.0000172
##  7 아랑은 왜_14       1 0.00587  
##  8 사람의 아들_19     1 0.0000288
##  9 아랑은 왜_13       1 0.0000172
## 10 광장_12            1 0.0000296
## # ... with 326 more rows
…
우리의 LDA가 네 작품을 얼마나 잘 구별해주는지 확인하기

문서의 이름을 소설의 제목과 장으로 다시 분리하기.

작품별 γ(특정 문서가 특정 주제에 할당될 확률) 시각화하기.

우리의 LDA가 얼마나 성공적으로 이루어졌는지 확인하기.

# 문서의 이름을 소설 제목과 장으로 분리하기. 
sjnovel.gamma.1 <- sjnovel.gamma %>%
  separate(document, c("title", "chapter"), sep = "_") %>%
  mutate(chapter = as.numeric(chapter))
sjnovel.gamma.1

## # A tibble: 336 x 4
##    title       chapter topic     gamma
##    <chr>         <dbl> <int>     <dbl>
##  1 아랑은 왜         1     1 1.00     
##  2 아랑은 왜         2     1 1.00     
##  3 사람의 아들      15     1 0.0158   
##  4 아랑은 왜        17     1 0.0000172
##  5 아랑은 왜        16     1 0.0000172
##  6 아랑은 왜         9     1 0.0000172
##  7 아랑은 왜        14     1 0.00587  
##  8 사람의 아들      19     1 0.0000288
##  9 아랑은 왜        13     1 0.0000172
## 10 광장             12     1 0.0000296
## # ... with 326 more rows
…
